<svg xmlns="http://www.w3.org/2000/svg" xmlns:xlink="http://www.w3.org/1999/xlink" width="18" height="18" viewBox="0 0 18 18">
  <defs>
    <clipPath id="clip-path">
      <rect id="Rectangle_5198" data-name="Rectangle 5198" width="18" height="18" transform="translate(90 421)" fill="#006cb2" stroke="#707070" stroke-width="1"/>
    </clipPath>
  </defs>
  <g id="Mask_Group_30" data-name="Mask Group 30" transform="translate(-90 -421)" clip-path="url(#clip-path)">
    <path id="fi-rr-computer" d="M14.25.75H3.75A3.755,3.755,0,0,0,0,4.5v6a3.755,3.755,0,0,0,3.75,3.75h4.5v1.5h-3a.75.75,0,0,0,0,1.5h7.5a.75.75,0,0,0,0-1.5h-3v-1.5h4.5A3.755,3.755,0,0,0,18,10.5v-6A3.754,3.754,0,0,0,14.25.75ZM3.75,2.25h10.5A2.25,2.25,0,0,1,16.5,4.5V9.75H1.5V4.5A2.25,2.25,0,0,1,3.75,2.25Zm10.5,10.5H3.75a2.25,2.25,0,0,1-2.112-1.5H16.362A2.25,2.25,0,0,1,14.25,12.75Z" transform="translate(90 421)" fill="#006cb2"/>
  </g>
</svg>
