<svg xmlns="http://www.w3.org/2000/svg" xmlns:xlink="http://www.w3.org/1999/xlink" width="16" height="16" viewBox="0 0 16 16">
  <defs>
    <clipPath id="clip-path">
      <rect id="Rectangle_20215" data-name="Rectangle 20215" width="16" height="16" transform="translate(4807 4302)" fill="#fe6f61" stroke="#707070" stroke-width="1"/>
    </clipPath>
  </defs>
  <g id="Mask_Group_134" data-name="Mask Group 134" transform="translate(-4807 -4302)" clip-path="url(#clip-path)">
    <path id="XMLID_89_" d="M7.53,12.835a.608.608,0,0,1-.383-.139.587.587,0,0,1-.209-.591l.852-4.348-.47.261a.612.612,0,1,1-.609-1.061L8.33,6.035a.607.607,0,0,1,.661.035.637.637,0,0,1,.243.609L8.348,11.2l.73-.313A.607.607,0,0,1,9.565,12l-1.791.783A.555.555,0,0,1,7.53,12.835ZM9.252,4.522a.886.886,0,0,0,.261-.609A.816.816,0,0,0,9.252,3.3a.886.886,0,0,0-.609-.261.816.816,0,0,0-.609.261.886.886,0,0,0-.261.609.816.816,0,0,0,.261.609.886.886,0,0,0,.609.261A.816.816,0,0,0,9.252,4.522ZM16,8a8,8,0,1,0-8,8A8,8,0,0,0,16,8ZM14.609,8A6.609,6.609,0,1,1,8,1.391,6.606,6.606,0,0,1,14.609,8Z" transform="translate(4807 4302)" fill="#fe6f61"/>
  </g>
</svg>
