<svg xmlns="http://www.w3.org/2000/svg" xmlns:xlink="http://www.w3.org/1999/xlink" width="24" height="24" viewBox="0 0 24 24">
  <defs>
    <clipPath id="clip-path">
      <rect id="Rectangle_20230" data-name="Rectangle 20230" width="24" height="24" transform="translate(540 755)" fill="rgba(255,255,255,0.8)"/>
    </clipPath>
  </defs>
  <g id="Mask_Group_128" data-name="Mask Group 128" transform="translate(-540 -755)" clip-path="url(#clip-path)">
    <g id="user" transform="translate(537.231 752.231)">
      <path id="Path_24489" data-name="Path 24489" d="M24.615,26.769a.923.923,0,0,1-.923-.923V23.385a4,4,0,0,0-4-4H9.846a4,4,0,0,0-4,4v2.462a.923.923,0,1,1-1.846,0V23.385a5.846,5.846,0,0,1,5.846-5.846h9.846a5.853,5.853,0,0,1,5.846,5.846v2.462A.923.923,0,0,1,24.615,26.769Z" fill="rgba(255,255,255,0.8)"/>
      <path id="Ellipse_53" data-name="Ellipse 53" d="M4.923-.923A5.846,5.846,0,1,1-.923,4.923,5.853,5.853,0,0,1,4.923-.923Zm0,9.846a4,4,0,1,0-4-4A4,4,0,0,0,4.923,8.923Z" transform="translate(9.846 3.692)" fill="rgba(255,255,255,0.8)"/>
    </g>
  </g>
</svg>
