<svg xmlns="http://www.w3.org/2000/svg" xmlns:xlink="http://www.w3.org/1999/xlink" width="22" height="22" viewBox="0 0 22 22">
  <defs>
    <clipPath id="clip-path">
      <rect id="Rectangle_7899" data-name="Rectangle 7899" width="22" height="22" transform="translate(800 282)" fill="#c7c7c7"/>
    </clipPath>
  </defs>
  <g id="Mask_Group_104" data-name="Mask Group 104" transform="translate(-800 -282)" clip-path="url(#clip-path)">
    <g id="trash" transform="translate(798.721 280.721)">
      <path id="Path_10121" data-name="Path 10121" d="M3.07,6.14H21.488" fill="none" stroke="red" stroke-linecap="round" stroke-linejoin="round" stroke-width="1.535"/>
      <path id="Path_10122" data-name="Path 10122" d="M19.442,6.14V20.465A2.047,2.047,0,0,1,17.4,22.512H7.163a2.047,2.047,0,0,1-2.047-2.047V6.14m3.07,0V4.093a2.047,2.047,0,0,1,2.047-2.047h4.093a2.047,2.047,0,0,1,2.047,2.047V6.14" fill="none" stroke="red" stroke-linecap="round" stroke-linejoin="round" stroke-width="1.535"/>
    </g>
  </g>
</svg>
