<svg xmlns="http://www.w3.org/2000/svg" xmlns:xlink="http://www.w3.org/1999/xlink" width="18" height="18" viewBox="0 0 18 18">
  <defs>
    <clipPath id="clip-path">
      <rect id="Rectangle_5198" data-name="Rectangle 5198" width="18" height="18" transform="translate(90 421)" fill="#006cb2" stroke="#707070" stroke-width="1"/>
    </clipPath>
  </defs>
  <g id="Mask_Group_27" data-name="Mask Group 27" transform="translate(-90 -421)" clip-path="url(#clip-path)">
    <path id="fi-rr-shop" d="M18,7.5a.741.741,0,0,0-.018-.163l-.975-4.4A3.726,3.726,0,0,0,13.344,0H4.656A3.726,3.726,0,0,0,1,2.936l-.978,4.4A.741.741,0,0,0,0,7.5v.75a2.988,2.988,0,0,0,.75,1.982V14.25A3.754,3.754,0,0,0,4.5,18h9a3.754,3.754,0,0,0,3.75-3.75V10.232A2.988,2.988,0,0,0,18,8.25ZM1.5,7.582l.96-4.32A2.236,2.236,0,0,1,4.656,1.5H5.25V3.75a.75.75,0,1,0,1.5,0V1.5h4.5V3.75a.75.75,0,1,0,1.5,0V1.5h.594a2.236,2.236,0,0,1,2.2,1.762l.96,4.32V8.25A1.5,1.5,0,0,1,15,9.75h-.75a1.5,1.5,0,0,1-1.5-1.5.75.75,0,1,0-1.5,0,1.5,1.5,0,0,1-1.5,1.5H8.25a1.5,1.5,0,0,1-1.5-1.5.75.75,0,1,0-1.5,0,1.5,1.5,0,0,1-1.5,1.5H3a1.5,1.5,0,0,1-1.5-1.5Zm12,8.918h-9a2.25,2.25,0,0,1-2.25-2.25v-3.1a2.983,2.983,0,0,0,.75.1h.75A2.992,2.992,0,0,0,6,10.232,2.992,2.992,0,0,0,8.25,11.25h1.5A2.992,2.992,0,0,0,12,10.232a2.992,2.992,0,0,0,2.25,1.018H15a2.984,2.984,0,0,0,.75-.1v3.1A2.25,2.25,0,0,1,13.5,16.5Z" transform="translate(90 421)" fill="#006cb2"/>
  </g>
</svg>
