<svg xmlns="http://www.w3.org/2000/svg" width="24.461" height="25.891" viewBox="0 0 24.461 25.891">
  <path id="start-favorite" d="M175.669,889.291l-7.474-1.14L164.835,881l-3.36,7.151L154,889.291l5.407,5.536-1.28,7.842,6.707-3.7,6.707,3.7-1.28-7.842,5.407-5.536" transform="translate(-151.924 -878.649)" fill="none" stroke="#ffc400" stroke-width="2" fill-rule="evenodd"/>
</svg>
